<?xml version="1.0" encoding="utf-8"?>
<!-- Generator: Adobe Illustrator 22.1.0, SVG Export Plug-In . SVG Version: 6.00 Build 0)  -->
<svg version="1.1" id="Layer_1" xmlns="http://www.w3.org/2000/svg" xmlns:xlink="http://www.w3.org/1999/xlink" x="0px" y="0px"
	 viewBox="0 0 30 30" style="enable-background:new 0 0 30 30;" xml:space="preserve">
<style type="text/css">
	.st0{opacity:0.6;fill:#FFFFFF;}
</style>
<title>doctor_white</title>
<path class="st0" d="M20.1,17.5h-0.5c-0.3,0-0.6,0.1-0.8,0.4l-0.3,0.3v-1.5c1.5-1,2.6-2.6,3.1-4.4c1-0.2,1.8-1.1,2-2.1
	c0.1-1-0.3-2-1.2-2.6c0.4-0.9,0.4-1.9,0.2-2.8c-0.5-2.3-3.4-4.6-7.6-4.6S7.8,2.5,7.3,4.8C7.2,5.8,7.2,6.8,7.6,7.7
	c-0.9,0.6-1.3,1.6-1.2,2.6c0.2,1,1,1.9,2,2.1c0.5,1.8,1.6,3.4,3.1,4.4v1.5L11.2,18c-0.2-0.3-0.5-0.4-0.8-0.4H9.9
	c-5.3,0.1-9.5,4.3-9.6,9.6v1.4c0,0.7,0.5,1.2,1.2,1.2l0,0c0.7,0,1.2-0.5,1.2-1.2l0,0v-1.4c0-2.8,1.6-5.4,4.2-6.5v1
	c-1.4,0.4-2.4,1.7-2.4,3.2v2.3c0,0.7,0.5,1.2,1.2,1.2l0,0h0.9c0.7,0,1.2-0.5,1.2-1.2l0,0c0-0.5-0.4-1-0.9-1.1v-1.2
	c0-0.5,0.4-0.9,0.9-0.9h0.5c0.5,0,0.9,0.4,0.9,0.9v1.2c-0.5,0.1-0.9,0.6-0.9,1.1c-0.1,0.6,0.4,1.1,1,1.2h0.1h1
	c0.7,0,1.2-0.5,1.2-1.2l0,0v-2.3c0-1.5-1-2.8-2.4-3.2v-1.7h0.7l1.9,1.9l0.2,0.2l1.9,1.9v4.6c0,0.7,0.5,1.2,1.2,1.2l0,0
	c0.6,0,1.1-0.5,1.1-1.1v-0.1v-4.6L18,22l0.2-0.2l1.9-1.9h0.7v3.5c-1,0.5-1.5,1.5-1.4,2.6c0.2,1.3,1.3,2.3,2.6,2.3
	c1.3,0,2.4-1,2.5-2.3c0.2-1.1-0.4-2.2-1.4-2.6v-2.8c2.6,1.1,4.2,3.7,4.2,6.5v1.4c0,0.7,0.5,1.2,1.2,1.2l0,0c0.7,0,1.2-0.5,1.2-1.2
	l0,0v-1.4C29.6,21.9,25.5,17.6,20.1,17.5z M22,26c-0.2,0-0.3-0.1-0.3-0.2s0.1-0.2,0.3-0.2c0.1,0,0.2,0.1,0.2,0.2S22.1,26,22,26z
	 M14.9,18h0.1l1.1-0.2v2.7l-1.1,1.2l-1.2-1.2v-2.7L14.9,18z M20.3,6.8c-0.7-0.7-1.3-1.5-1.9-2.3C18.1,4.3,17.8,4,17.5,4h-0.1
	c-0.3,0-0.6,0.1-0.8,0.3c-2,1.4-4.4,2.3-6.8,2.7C9.6,6.6,9.6,5.9,9.6,5.4c0.3-1.2,2.2-2.8,5.5-2.8s5.1,1.6,5.4,2.8
	C20.5,5.8,20.4,6.3,20.3,6.8z M10.6,9.4c2.3-0.5,4.5-1.3,6.5-2.6c0.7,0.9,1.5,1.7,2.4,2.3v2.2c0,2.3-3.1,4.4-4.4,4.4
	s-4.5-2.1-4.5-4.4L10.6,9.4z"/>
</svg>
