<svg id="Capa_1" data-name="Capa 1" xmlns="http://www.w3.org/2000/svg" width="43.9" height="49" viewBox="0 0 43.9 49">
  <title>edit</title>
  <g>
    <path d="M34.2,21.6a1.9,1.9,0,0,0-1.9-2H12.6a1.9,1.9,0,0,0-1.9,2,1.9,1.9,0,0,0,1.9,1.9H32.3A1.9,1.9,0,0,0,34.2,21.6Z" transform="translate(-3 -0.5)" fill="#2287de"/>
    <path d="M12.6,27.3a1.9,1.9,0,0,0-1.9,1.9,1.8,1.8,0,0,0,1.9,1.9h12a1.9,1.9,0,0,0,1.9-1.9,2,2,0,0,0-1.9-1.9Z" transform="translate(-3 -0.5)" fill="#2287de"/>
    <path d="M17.1,45.7H10.7a3.8,3.8,0,0,1-3.8-3.9V8.2a3.8,3.8,0,0,1,3.8-3.9H34.2a3.9,3.9,0,0,1,3.9,3.9V19.9A1.8,1.8,0,0,0,40,21.8a1.9,1.9,0,0,0,1.9-1.9V8.2A7.6,7.6,0,0,0,34.2.5H10.7A7.7,7.7,0,0,0,3,8.2V41.8a7.7,7.7,0,0,0,7.7,7.7h6.4A1.9,1.9,0,0,0,19,47.6,1.8,1.8,0,0,0,17.1,45.7Z" transform="translate(-3 -0.5)" fill="#2287de"/>
    <path d="M45.3,28.2a5.8,5.8,0,0,0-8.1,0L26.7,38.7a1.4,1.4,0,0,0-.5.8L23.9,47a2.1,2.1,0,0,0,.4,1.9,2,2,0,0,0,1.4.6h.5L34,47.3l.8-.5L45.3,36.3A5.8,5.8,0,0,0,45.3,28.2ZM32.4,43.7l-3.8,1.1,1.1-3.7L36.8,34l2.7,2.7ZM42.6,33.6l-.4.4-2.7-2.7.4-.4a1.9,1.9,0,0,1,2.7,2.7Z" transform="translate(-3 -0.5)" fill="#2287de"/>
    <path d="M32.3,12H12.6a1.9,1.9,0,0,0,0,3.8H32.3a1.9,1.9,0,1,0,0-3.8Z" transform="translate(-3 -0.5)" fill="#2287de"/>
  </g>
</svg>
