<?xml version="1.0" encoding="utf-8"?>
<!-- Generator: Adobe Illustrator 23.0.6, SVG Export Plug-In . SVG Version: 6.00 Build 0)  -->
<svg version="1.1" id="Layer_1" xmlns="http://www.w3.org/2000/svg" xmlns:xlink="http://www.w3.org/1999/xlink" x="0px" y="0px"
	 viewBox="0 0 167 376" style="enable-background:new 0 0 167 376;" xml:space="preserve">
<style type="text/css">
	.st0{fill:#282828;}
	.st1{fill:#6F70A8;}
	.st2{fill:#8485BA;}
	.st3{fill:#F7C9B2;}
	.st4{fill:#F5B39A;}
	.st5{fill:#1E2020;}
	.st6{fill:url(#SVGID_1_);}
	.st7{fill:#232426;}
	.st8{fill:#FFFBFF;}
	.st9{fill:#525252;}
	.st10{fill:#FD4026;}
	.st11{fill:#D7D8D9;}
</style>
<g>
	<g>
		<path class="st0" d="M56.21,340.67c0,0-6.75,8.52-9.95,12.42c-3.19,3.91,1.43,12.79,9.95,8.18c8.53-4.63,12.77-9,14.56-9.66
			c1.78-0.65,3.2-4.55,2.49-15.22L56.21,340.67z"/>
	</g>
	<g>
		<path class="st1" d="M53.59,202.74l0.46,137.93h23.29l3.07-118.17c0,0,0.16-6.78,2.08-8.05v-14.21L53.59,202.74z"/>
	</g>
	<g>
		<path class="st0" d="M108.77,340.67c0,0,6.74,8.52,9.94,12.42c3.19,3.91-1.41,12.79-9.94,8.18c-8.54-4.63-12.78-9-14.56-9.66
			c-1.78-0.65-3.2-4.55-2.5-15.22L108.77,340.67z"/>
	</g>
	<g>
		<path class="st1" d="M111.39,202.74l-0.46,137.93H87.64L84.56,222.5c0,0-0.48-7.3-2.07-8.05v-14.21L111.39,202.74z"/>
	</g>
	<path class="st2" d="M68.13,201.49l-3.6,139.19h12.81l3.07-118.17c0,0,0.16-6.78,2.08-8.05l-0.19-14.19L68.13,201.49z"/>
	<polygon class="st2" points="102.21,340.67 110.93,340.67 111.39,202.74 97.48,201.54 	"/>
	<path class="st2" d="M132.55,134.15l-9.29-39.78l-26.1,10.42c0,0,15.12,28.71,18.63,38.61c1.99,5.6,7.13,13.67,11.72,14.15
		c4.58,0.47,9.28-10.17,9.28-10.17L132.55,134.15z"/>
	<g>
		<path class="st3" d="M89.69,60.62l-7.2,1l-7.21-1c0,0,1.08,11.44-7.38,12.11c0,0,7,17.09,14.59,17.09
			c7.57,0,14.67-17.09,14.67-17.09C89.32,70.68,89.69,60.62,89.69,60.62z"/>
		<g>
			<path class="st4" d="M81,70.68c3.99,0,7.21-3.09,9.07-5.78c-0.33-2.32-0.38-4.29-0.38-4.29l-7.2,1l-7.21-1c0,0-0.11,4-1.02,7.31
				C76.16,69.69,78.43,70.68,81,70.68z"/>
		</g>
	</g>
	<g>
		<path class="st2" d="M65.79,73.84c-3.91,2.13-18.55,4.72-19.26,12.18c-0.71,7.46,4.32,40.76,5.03,58.87
			c0.72,18.13-0.71,57.85-0.71,57.85h31.63V98.87L65.79,73.84z"/>
	</g>
	<g>
		<path class="st2" d="M99.18,73.84c3.91,2.13,18.76,6.39,19.47,13.85c0.7,7.46-4.54,39.09-5.24,57.2
			c-0.73,18.13,0.7,57.85,0.7,57.85H82.49V98.87L99.18,73.84z"/>
	</g>
	<polygon class="st2" points="97.16,72.73 82.18,89.82 67.9,72.73 60.68,75.78 82.18,111 103.47,75.73 	"/>
	<g>
		<g>
			<path class="st3" d="M82.49,67.49c6.36,0,12.71-7.92,14.39-17.36c0,0,1.28,0.35,2.34-0.93c1.32-1.62,2.42-5.1,1.48-6.99
				c-1.7-3.4-4.26-1-4.26-1s0.43-15.04-13.96-15.04V67.49z"/>
		</g>
		<g>
			<path class="st3" d="M82.49,67.49c-6.36,0-12.71-7.92-14.41-17.36c0,0-1.26,0.35-2.32-0.93c-1.34-1.62-2.44-5.1-1.49-6.99
				c1.69-3.4,4.25-1,4.25-1s-0.44-15.04,13.97-15.04V67.49z"/>
		</g>
		<g>
			<path class="st5" d="M101.12,26.16C100.49,18.8,96.46,12.21,82.49,12c-13.98,0.21-18.01,6.8-18.63,14.16
				c-0.65,7.35,1.38,14.76,1.38,14.76c2.84-0.6,4.12,2.79,4.12,2.79c-0.84-6.6,3.81-16.61,5.51-15.29c1.69,1.32,5.72,2.55,7.62,2.55
				c1.9,0,5.92-1.22,7.62-2.55c1.7-1.32,6.35,8.69,5.51,15.29c0,0,1.26-3.4,4.12-2.79C99.74,40.92,101.75,33.52,101.12,26.16z"/>
		</g>
	</g>
	<g>
		<path class="st2" d="M124.72,107.44c0.05-0.79,0.09-1.58,0.12-2.37c0.35-15.27-9.46-22.79-9.46-22.79l0.26,25.16H124.72z"/>
	</g>
	<g>
		<path class="st2" d="M61.53,75.42c0,0-15.07,5.37-18.07,7.86c-2.32,1.93-10.06,31.16-11.38,40.42
			c-1.32,9.27-3.97,19.85-4.23,23.55c-0.27,3.7,16.39,5.49,16.39,5.49l9.12-35.39l7.26-16.41L61.53,75.42z"/>
	</g>
	
		<linearGradient id="SVGID_1_" gradientUnits="userSpaceOnUse" x1="662.329" y1="103.2618" x2="668.49" y2="158.7103" gradientTransform="matrix(1 0 0 1 -543.2614 0)">
		<stop  offset="0" style="stop-color:#8485BA"/>
		<stop  offset="1" style="stop-color:#6F70A8"/>
	</linearGradient>
	<path class="st6" d="M127.5,157.54c2.24,0.23,4.5-2.19,6.22-4.72c-11.3-8.2-21.19-48.65-21.19-48.65s1.89,27.08,1.27,34.11
		c0,0,0.06,0.23,0.16,0.59c0.75,1.74,1.38,3.28,1.82,4.52C117.77,148.98,122.92,157.05,127.5,157.54z"/>
	<g>
		<path class="st2" d="M47.8,145.56c0,0-2.88,10.67-9.79,10.8c-6.91,0.11-11.56-6.74-11.23-11.52c0.32-4.78,4.11-7.69,5.78-9.56
			L47.8,145.56z"/>
	</g>
	<g>
		<path class="st7" d="M62.4,112.5l-22.12,3.88c-0.15,0.03-0.3-0.08-0.33-0.23l-0.76-4.33c-0.03-0.15,0.08-0.3,0.23-0.33l22.12-3.88
			c0.15-0.03,0.3,0.08,0.33,0.23l0.76,4.33C62.66,112.33,62.56,112.47,62.4,112.5z"/>
		<g>
			<path class="st8" d="M75.11,156.32l-31.73,5.57c-0.47,0.08-0.91-0.23-1-0.7l-7.65-43.6c-0.08-0.47,0.23-0.92,0.7-1l31.73-5.57
				c0.47-0.08,0.91,0.23,1,0.7l7.65,43.6C75.89,155.79,75.58,156.23,75.11,156.32z"/>
			<path class="st9" d="M75.28,157.3l-31.73,5.56c-1.01,0.18-1.98-0.5-2.15-1.51l-7.65-43.6c-0.18-1.01,0.5-1.98,1.51-2.15
				l31.73-5.57c1.01-0.18,1.98,0.5,2.15,1.51l7.65,43.6C76.97,156.16,76.29,157.12,75.28,157.3z M67.18,111.89l-31.57,5.68
				l7.76,43.44l31.44-5.65L67.18,111.89z M74.94,155.34L74.94,155.34L74.94,155.34z"/>
		</g>
		<g>
			<g>
				<g>
					
						<rect x="40.87" y="120.87" transform="matrix(0.9848 -0.1735 0.1735 0.9848 -20.669 9.3052)" class="st10" width="4.07" height="4.07"/>
				</g>
				<g>
					
						<rect x="42.21" y="128.49" transform="matrix(0.9849 -0.1729 0.1729 0.9849 -21.8984 9.6131)" class="st10" width="4.07" height="4.07"/>
				</g>
				<g>
					
						<rect x="43.54" y="136.12" transform="matrix(0.9849 -0.1734 0.1734 0.9849 -23.2593 9.9931)" class="st10" width="4.07" height="4.07"/>
				</g>
				<g>
					
						<rect x="44.88" y="143.74" transform="matrix(0.9849 -0.1729 0.1729 0.9849 -24.4988 10.3079)" class="st10" width="4.07" height="4.07"/>
				</g>
				<g>
					
						<rect x="46.22" y="151.36" transform="matrix(0.9849 -0.1734 0.1734 0.9849 -25.8687 10.6914)" class="st10" width="4.07" height="4.07"/>
				</g>
			</g>
			<g>
				
					<rect x="46.04" y="118.71" transform="matrix(0.985 -0.1727 0.1727 0.985 -19.748 11.3076)" class="st11" width="18.1" height="0.81"/>
			</g>
			<g>
				
					<rect x="50.05" y="141.58" transform="matrix(0.9849 -0.1729 0.1729 0.9849 -23.6543 12.355)" class="st11" width="18.1" height="0.81"/>
			</g>
			<g>
				
					<rect x="49" y="135.56" transform="matrix(0.9849 -0.1729 0.1729 0.9849 -22.6287 12.0811)" class="st11" width="18.1" height="0.81"/>
			</g>
			<g>
				<polygon class="st11" points="64.64,121.16 54.67,122.91 54.52,122.11 64.5,120.36 				"/>
			</g>
			<g>
				<polygon class="st11" points="52.86,123.23 46.81,124.29 46.67,123.49 52.73,122.43 				"/>
			</g>
			<g>
				
					<rect x="58.53" y="144.1" transform="matrix(0.9849 -0.1729 0.1729 0.9849 -24.0314 13.1751)" class="st11" width="10.13" height="0.81"/>
			</g>
			<g>
				
					<rect x="51.73" y="151.49" transform="matrix(0.9849 -0.1729 0.1729 0.9849 -25.4044 12.1064)" class="st11" width="10.13" height="0.81"/>
			</g>
			<g>
				<polygon class="st11" points="69.71,150.05 63.25,151.18 63.11,150.38 69.57,149.25 				"/>
			</g>
			<g>
				<polygon class="st11" points="65.37,152.46 58.91,153.6 58.77,152.8 65.23,151.66 				"/>
			</g>
			<g>
				<polygon class="st11" points="54.33,129.17 47.87,130.31 47.73,129.51 54.19,128.37 				"/>
			</g>
			<g>
				
					<rect x="50.71" y="145.82" transform="matrix(0.985 -0.1727 0.1727 0.985 -24.4442 11.4842)" class="st11" width="6.14" height="0.81"/>
			</g>
			<g>
				<polygon class="st11" points="60.44,120.24 46.53,122.68 46.39,121.89 60.29,119.45 				"/>
			</g>
			<g>
				<g>
					
						<rect x="47.43" y="126.96" transform="matrix(0.985 -0.1725 0.1725 0.985 -21.1833 11.0277)" class="st11" width="10.82" height="0.81"/>
				</g>
				<g>
					
						<rect x="59.83" y="125.25" transform="matrix(0.9847 -0.1745 0.1745 0.9847 -20.9699 12.8559)" class="st11" width="5.56" height="0.81"/>
				</g>
			</g>
			<g>
				<g>
					<polygon class="st11" points="56.52,137.48 67.18,135.61 67.32,136.41 56.66,138.28 					"/>
				</g>
				<g>
					<polygon class="st11" points="54.83,137.77 54.97,138.57 49.48,139.54 49.35,138.74 					"/>
				</g>
			</g>
			<g>
				<g>
					<polygon class="st11" points="61.85,133.23 66.61,132.4 66.75,133.19 61.99,134.03 					"/>
				</g>
				<g>
					
						<rect x="48.77" y="134.52" transform="matrix(0.9848 -0.1738 0.1738 0.9848 -22.6164 11.5295)" class="st11" width="11.54" height="0.81"/>
				</g>
			</g>
			<g>
				<g>
					
						<rect x="64.56" y="148.05" transform="matrix(0.985 -0.1725 0.1725 0.985 -24.609 13.7815)" class="st11" width="4.84" height="0.81"/>
				</g>
				<g>
					<polygon class="st11" points="62.83,148.77 62.97,149.58 51.6,151.57 51.46,150.77 					"/>
				</g>
			</g>
			<g>
				<g>
					
						<rect x="50.39" y="143.81" transform="matrix(0.9849 -0.173 0.173 0.9849 -24.1088 11.8283)" class="st11" width="10.82" height="0.81"/>
				</g>
				<g>
					
						<rect x="62.78" y="142.1" transform="matrix(0.9854 -0.1704 0.1704 0.9854 -23.3207 13.2542)" class="st11" width="5.56" height="0.81"/>
				</g>
			</g>
		</g>
	</g>
	<g>
		<path class="st3" d="M35.84,133.69c-2.99,0.42-5.06,3.2-4.65,6.18l2.41,6.26c0.42,2.98,1.83,6.01,4.8,5.59l2.49-0.36
			c2.98-0.43,5.96-3.54,5.54-6.52c0,0-0.6-3.73-0.7-4.58c-0.16-0.95-1.5-3.36-1.5-3.36c-0.42-2.98-2.92-4-5.91-3.55L35.84,133.69z"
			/>
	</g>
	<polygon class="st1" points="67.9,72.73 61.53,75.42 61.53,75.42 82.49,98.87 103.47,75.73 97.16,72.73 82.18,89.82 	"/>
	<g>
		<path class="st3" d="M126.24,136.12c-1.18,0.91-3.91,11.24-0.97,14.57c1.12,1.25,5.81,1.82,7.66,1.72
			c6.81-0.42,8.81-17.62,2.94-17.9C133.38,134.39,127.84,134.9,126.24,136.12z"/>
	</g>
	<path class="st3" d="M131.65,134.3c0,0-0.77-9.96,1.96-10.54c2.73-0.58,1.3,2.94,2.29,6.76c0.99,3.81,1.74,5.97,1.74,5.97
		l-5.44,0.85L131.65,134.3z"/>
</g>
</svg>
