<?xml version="1.0" encoding="utf-8"?>
<!-- Generator: Adobe Illustrator 22.1.0, SVG Export Plug-In . SVG Version: 6.00 Build 0)  -->
<svg version="1.1" id="Layer_1" xmlns="http://www.w3.org/2000/svg" xmlns:xlink="http://www.w3.org/1999/xlink" x="0px" y="0px"
	 viewBox="0 0 30 30" style="enable-background:new 0 0 30 30;" xml:space="preserve">
<style type="text/css">
	.st0{opacity:0.6;}
	.st1{fill:#FFFFFF;}
</style>
<title>menu_white</title>
<g class="st0">
	<path class="st1" d="M28.2,22.6h-19c-1,0-1.7,0.7-1.8,1.7c0,1,0.8,1.8,1.8,1.8h19c1,0,1.8-0.8,1.8-1.8
		C29.9,23.4,29.1,22.6,28.2,22.6z"/>
	<path class="st1" d="M28.2,13.2h-19c-1,0-1.7,0.7-1.8,1.7c0,1,0.8,1.8,1.8,1.8c0,0,0,0,0,0h19c0.9,0.1,1.7-0.7,1.8-1.6
		c0-0.1,0-0.1,0-0.2C29.9,14,29.1,13.2,28.2,13.2z"/>
	<path class="st1" d="M9.2,7.3h19c1,0,1.7-0.7,1.8-1.7c0-1-0.8-1.8-1.8-1.8h-19c-1,0-1.8,0.8-1.8,1.8v0C7.4,6.6,8.2,7.3,9.2,7.3z"/>
	<path class="st1" d="M2.8,3.4C1.5,3.2,0.3,4,0.1,5.2s0.5,2.5,1.8,2.7c0.3,0.1,0.6,0.1,1,0C4,7.9,5,6.9,5,5.7C5,4.5,4.1,3.5,2.9,3.4
		C2.9,3.4,2.8,3.4,2.8,3.4z"/>
	<path class="st1" d="M2.8,12.7c-1.3-0.1-2.3,0.9-2.4,2.2s0.9,2.3,2.2,2.4s2.3-0.9,2.4-2.2c0-0.1,0-0.1,0-0.2
		C5,13.7,4,12.7,2.8,12.7z"/>
	<path class="st1" d="M2.8,22C1.5,22,0.4,23,0.4,24.2c-0.1,1.3,0.9,2.3,2.2,2.4s2.3-0.9,2.4-2.2c0-0.1,0-0.1,0-0.2C5,23,4,22,2.8,22
		C2.8,22,2.8,22,2.8,22z"/>
</g>
</svg>
