<svg id="Layer_1" data-name="Layer 1" xmlns="http://www.w3.org/2000/svg" width="29.5" height="29.5" viewBox="0 0 29.5 29.5">
  <title>orthopedic_active</title>
  <path d="M27.2,6.7h.1c.2-.1.2-.4,0-.6a.5.5,0,0,0-.7,0l-6.8,6.7a.8.8,0,0,0-.1,1,2.3,2.3,0,0,1-.4,2.7l-.4.2h0a2.1,2.1,0,0,1-2.4-.2,2.4,2.4,0,0,1-.7-1.2h0v-.9c-.1-.2-.4-.4-.6-.3a.4.4,0,0,0-.4.4l-.7-.5a2.1,2.1,0,0,1,2.7-3.1.8.8,0,0,0,1-.1l7-6.8a.5.5,0,1,0-.7-.7h-.1A15,15,0,0,0,4.6,4.5,14.4,14.4,0,0,0,.3,14.8a14.9,14.9,0,0,0,3.6,9.7,15,15,0,0,0,8.7,4.7h0a.5.5,0,0,0,.5.5.6.6,0,0,0,.5-.5v-.4h0V20.1a.8.8,0,0,0-.7-.7,2.2,2.2,0,0,1-1.6-2.2,2.1,2.1,0,0,1,1.9-1.9,3.2,3.2,0,0,1,1.4.3H15a2.9,2.9,0,0,0,2.9,2.1h.7a2,2,0,0,1-1.5,1.7.8.8,0,0,0-.7.7v9.2c0,.2.3.4.5.4a.5.5,0,0,0,.5-.4h0a15,15,0,0,0,8.7-4.7,14.9,14.9,0,0,0,3.6-9.7A13.9,13.9,0,0,0,27.2,6.7ZM13.4,10.6a3,3,0,0,0-.2,3.8,3,3,0,0,0-.6,5.9v7.9A13.7,13.7,0,0,1,1.2,14.8,13.7,13.7,0,0,1,15,1.2a14.4,14.4,0,0,1,8.3,2.7L17.1,10A2.9,2.9,0,0,0,13.4,10.6Zm4,17.6V20.3a2.9,2.9,0,0,0,2.2-3l.3-.2a3,3,0,0,0,.6-3.8l6-5.9a13.2,13.2,0,0,1,2.3,7.4A13.7,13.7,0,0,1,17.4,28.2Z" transform="translate(-0.3 -0.3)" fill="#fff"/>
</svg>
