<?xml version="1.0" encoding="utf-8"?>
<!-- Generator: Adobe Illustrator 23.0.6, SVG Export Plug-In . SVG Version: 6.00 Build 0)  -->
<svg version="1.1" id="Layer_1" xmlns="http://www.w3.org/2000/svg" xmlns:xlink="http://www.w3.org/1999/xlink" x="0px" y="0px"
	 viewBox="0 0 60 60" style="enable-background:new 0 0 60 60;" xml:space="preserve">
<style type="text/css">
	.st0{opacity:5.000000e-02;fill:#FF3655;}
	.st1{opacity:0.1;fill:#FF3655;}
	.st2{fill:#FF3655;}
</style>
<circle class="st0" cx="30" cy="30" r="30"/>
<circle class="st1" cx="30" cy="30" r="25"/>
<g>
	<path id="Shape" class="st2" d="M40.5,36.5v-6.4c0-0.2-0.1-0.4-0.2-0.4c-1.9-1-4.8-1.3-6.9,0c-3.3,2.3-6.6,1.2-8.8,0
		c-1.4-0.7-3.1-1-4.7-0.7c-0.2,0.1-0.4,0.2-0.4,0.5v7.1c0,0.9,0.7,1.5,1.5,1.5h18C39.9,38,40.5,37.3,40.5,36.5L40.5,36.5z
		 M20.5,36.5v-6.6c1.2-0.2,2.5,0.1,3.6,0.7c3.4,2,6.9,2,9.9,0c1.3-0.9,3.6-1,5.6-0.1v6.1c0,0.3-0.2,0.5-0.5,0.5H21
		C20.7,37,20.5,36.8,20.5,36.5L20.5,36.5z"/>
	<path class="st2" d="M35,45h1c0.6,0,1-0.4,1-1v-4h3c1.4,0,2.5-1.1,2.5-2.5v-20c0-1.4-1.1-2.5-2.5-2.5H20c-1.4,0-2.5,1.1-2.5,2.5v20
		c0,1.4,1.1,2.5,2.5,2.5h2v1c0,0.6,0.4,1,1,1v2c0,0.6,0.4,1,1,1h1c0.6,0,1-0.4,1-1v-2c0.6,0,1-0.4,1-1v-1h7v4C34,44.6,34.5,45,35,45
		z M36,44h-1v-4h1V44z M18.5,37.5v-20c0-0.9,0.7-1.5,1.5-1.5h20c0.9,0,1.5,0.7,1.5,1.5v20c0,0.9-0.7,1.5-1.5,1.5H20
		C19.2,39,18.5,38.3,18.5,37.5z M25,44h-1v-2h1V44z M26,41h-3v-1h3V41z"/>
	<path class="st2" d="M29,20h2c0.9,0,1.5-0.7,1.5-1.5S31.8,17,31,17h-2c-0.9,0-1.5,0.7-1.5,1.5C27.4,19.4,28.2,20,29,20z M29,18h2
		c0.3,0,0.5,0.2,0.5,0.5S31.3,19,31,19h-2c-0.3,0-0.5-0.2-0.5-0.5S28.7,18,29,18z"/>
	<path class="st2" d="M20.5,27h9c0.6,0,1-0.4,1-1v-3c0-0.6-0.4-1-1-1h-9c-0.6,0-1,0.4-1,1v3C19.5,26.6,20,27,20.5,27z M20.5,23h9v3
		h-9V23z"/>
	<path class="st2" d="M32,23.5c0,0.3,0.2,0.5,0.5,0.5H40c0.3,0,0.5-0.2,0.5-0.5c0-0.3-0.2-0.5-0.5-0.5h-7.5C32.2,23,32,23.2,32,23.5
		z"/>
	<path class="st2" d="M32.5,25c-0.3,0-0.5,0.2-0.5,0.5s0.2,0.5,0.5,0.5H35c0.3,0,0.5-0.2,0.5-0.5S35.3,25,35,25H32.5z"/>
	<path class="st2" d="M40,25h-3c-0.3,0-0.5,0.2-0.5,0.5S36.7,26,37,26h3c0.3,0,0.5-0.2,0.5-0.5S40.3,25,40,25z"/>
</g>
</svg>
