<svg id="Layer_1" data-name="Layer 1" xmlns="http://www.w3.org/2000/svg" width="49" height="49" viewBox="0 0 49 49">
  <title>time</title>
  <g>
    <path d="M25,.5A24.5,24.5,0,1,0,49.5,25,24.5,24.5,0,0,0,25,.5ZM42,25a2.3,2.3,0,0,0,2.3,2.3h.5a20.1,20.1,0,0,1-4.2,10.1l-.3-.4A2.3,2.3,0,0,0,37,40.3l.4.3a20.1,20.1,0,0,1-10.1,4.2v-.5a2.3,2.3,0,0,0-4.6,0v.5a20.1,20.1,0,0,1-10.1-4.2l.4-.3A2.3,2.3,0,1,0,9.7,37l-.3.4A20.1,20.1,0,0,1,5.2,27.3h.5a2.3,2.3,0,0,0,0-4.6H5.2A20.1,20.1,0,0,1,9.4,12.6l.3.4A2.3,2.3,0,0,0,13,9.7l-.4-.3A20.1,20.1,0,0,1,22.7,5.2v.5a2.3,2.3,0,0,0,4.6,0V5.2A20.1,20.1,0,0,1,37.4,9.4l-.4.3A2.3,2.3,0,0,0,40.3,13l.3-.4a20.1,20.1,0,0,1,4.2,10.1h-.5A2.3,2.3,0,0,0,42,25Z" transform="translate(-0.5 -0.5)" fill="#2287de"/>
    <path d="M25,11.3a2.3,2.3,0,0,0-2.3,2.3V24.4L18.5,32a2.4,2.4,0,0,0,.9,3.2l1.1.2a2.3,2.3,0,0,0,2-1.1L27,26.1a2,2,0,0,0,.3-1.1V13.6A2.3,2.3,0,0,0,25,11.3Z" transform="translate(-0.5 -0.5)" fill="#2287de"/>
  </g>
</svg>
